{
  "规则作者": "茶吖",
  "搜索请求头参数": "User-Agent$MOBILE_UA#Referer$https://res.yunpan.win/",
  "搜索链接": "https://res.yunpan.win/?PageIndex={SearchPg}&PageSize=12&Keyword={wd}&Type=&Tag=",
  "POST请求数据": "",
  "搜索截取模式": "1",
  "搜索列表数组规则": "body&&.card",
  "搜索片单是否Jsoup写法": "0",
  "搜索片单图片": "img src=\"&&\"",
  "搜索片单标题": "alt=\"&&\"",
  "搜索片单链接": "window.open('&&')",
  "搜索片单副标题": "",
  "搜索片单链接加前缀": "",
  "搜索片单链接加后缀": "",
  "详情是否Jsoup写法": "1",
  "类型详情": "",
  "年代详情": "",
  "地区详情": "",
  "演员详情": "",
  "简介详情": "",
  "链接是否直接播放": "1"
}